FANG 데이터를 활용한 tidyqaunt Package 연습
…
Example 1B. Getting Daily Log Returns

기업별로 일일(period = “daily”) 조정 주가 (select = adjusted) 에 대한 주기별 로그(type= “log”) 리턴값

FANG_daily_log_returns <- FANG %>% 
  group_by(symbol) %>% 
  tq_transmute( select = adjusted ,
                mutate_fun = periodReturn,
                period = "daily",
                type = "log") 
                #col_renames = "" : 임의로 칼럼 이름 지정 가능  
FANG_daily_log_returns

## # A tibble: 4,032 x 3
## # Groups:   symbol [4]
##    symbol date       daily.returns
##    <chr>  <date>             <dbl>
##  1 FB     2013-01-02       0      
##  2 FB     2013-01-03      -0.00825
##  3 FB     2013-01-04       0.0350 
##  4 FB     2013-01-07       0.0227 
##  5 FB     2013-01-08      -0.0123 
##  6 FB     2013-01-09       0.0513 
##  7 FB     2013-01-10       0.0229 
##  8 FB     2013-01-11       0.0133 
##  9 FB     2013-01-14      -0.0246 
## 10 FB     2013-01-15      -0.0278 
## # … with 4,022 more rows
…
Example 2: Use xts to.period to Change the Periodicity from Daily to Monthly

The xts::to.period function is used for periodicity aggregation (converting from a lower level periodicity to a higher level such as minutes to hours or months to years).

낮은 수준의 주기에서 높은 수준의 주기로 변경하기 위해 사용되는 함수

월별 주기성을 계산하기 위해 to.period , period = “months” 활용

FANG %>%  
  group_by(symbol) %>% 
  tq_transmute(select = open:volume,
               mutate_fun = to.period,
               period = "months")

## # A tibble: 192 x 7
## # Groups:   symbol [4]
##    symbol date        open  high   low close    volume
##    <chr>  <date>     <dbl> <dbl> <dbl> <dbl>     <dbl>
##  1 FB     2013-01-31  29.2  31.5  28.7  31.0 190744900
##  2 FB     2013-02-28  26.8  27.3  26.3  27.2  83027800
##  3 FB     2013-03-28  26.1  26.2  25.5  25.6  28585700
##  4 FB     2013-04-30  27.1  27.8  27.0  27.8  36245700
##  5 FB     2013-05-31  24.6  25.0  24.3  24.4  35925000
##  6 FB     2013-06-28  24.7  25.0  24.4  24.9  96778900
##  7 FB     2013-07-31  38.0  38.3  36.3  36.8 154828700
##  8 FB     2013-08-30  42.0  42.3  41.1  41.3  67735100
##  9 FB     2013-09-30  50.1  51.6  49.8  50.2 100095000
## 10 FB     2013-10-31  47.2  52    46.5  50.2 248809000
## # … with 182 more rows
…
# Baseline Returns 
baseline_returns_monthly <- "XLK" %>% 
  tq_get(get = "stock.prices",
         from = "2013-01-01",
         to = "2016-12-31") %>% 
  tq_transmute(select = adjusted, 
               mutate_fun = periodReturn,
               period="monthly")

baseline_returns_monthly

## # A tibble: 48 x 2
##    date       monthly.returns
##    <date>               <dbl>
##  1 2013-01-31        -0.0138 
##  2 2013-02-28         0.00782
##  3 2013-03-28         0.0258 
##  4 2013-04-30         0.0175 
##  5 2013-05-31         0.0279 
##  6 2013-06-28        -0.0289 
##  7 2013-07-31         0.0373 
##  8 2013-08-30        -0.0104 
##  9 2013-09-30         0.0253 
## 10 2013-10-31         0.0502 
## # … with 38 more rows

FANG return 값과 XLK 값을 JOIN

returns_joined <- left_join(FANG_returns_monthly, 
                            baseline_returns_monthly,
                            by = "date") 
returns_joined

## # A tibble: 192 x 4
## # Groups:   symbol [4]
##    symbol date       monthly.returns.x monthly.returns.y
##    <chr>  <date>                 <dbl>             <dbl>
##  1 FB     2013-01-31          0.106             -0.0138 
##  2 FB     2013-02-28         -0.120              0.00782
##  3 FB     2013-03-28         -0.0613             0.0258 
##  4 FB     2013-04-30          0.0856             0.0175 
##  5 FB     2013-05-31         -0.123              0.0279 
##  6 FB     2013-06-28          0.0218            -0.0289 
##  7 FB     2013-07-31          0.479              0.0373 
##  8 FB     2013-08-30          0.122             -0.0104 
##  9 FB     2013-09-30          0.217              0.0253 
## 10 FB     2013-10-31         -0.000398           0.0502 
## # … with 182 more rows
…
n = ? 을 지정하여 롤링 상관계수의 크기를 지정 가능.

y : basement return 값

FANG_rolling_corr <- returns_joined %>% 
  tq_transmute_xy(x = monthly.returns.x,
                  y = monthly.returns.y,
                  mutate_fun = runCor,
                  n = 6, # 6개월
                  col_rename = "rolling.corr.6")

FANG_rolling_corr

## # A tibble: 192 x 3
## # Groups:   symbol [4]
##    symbol date                rolling.corr.6
##    <chr>  <dttm>                       <dbl>
##  1 FB     2013-01-31 00:00:00         NA    
##  2 FB     2013-02-28 00:00:00         NA    
##  3 FB     2013-03-28 00:00:00         NA    
##  4 FB     2013-04-30 00:00:00         NA    
##  5 FB     2013-05-31 00:00:00         NA    
##  6 FB     2013-06-28 00:00:00         -0.519
##  7 FB     2013-07-31 00:00:00          0.325
##  8 FB     2013-08-30 00:00:00          0.235
##  9 FB     2013-09-30 00:00:00          0.396
## 10 FB     2013-10-31 00:00:00          0.185
## # … with 182 more rows
…
FANG_macd <- FANG %>% 
  group_by(symbol) %>% 
  tq_mutate(select = close,
            mutate_fun = MACD,
            nFast = 12, 
            nSlow = 26, 
            nSig= 9, 
            maType=SMA) %>% #SMA : Simple moving average
  mutate (diff = macd - signal) %>% 
  select(-(open:volume))

FANG_macd

## # A tibble: 4,032 x 6
## # Groups:   symbol [4]
##    symbol date       adjusted  macd signal  diff
##    <chr>  <date>        <dbl> <dbl>  <dbl> <dbl>
##  1 FB     2013-01-02     28      NA     NA    NA
##  2 FB     2013-01-03     27.8    NA     NA    NA
##  3 FB     2013-01-04     28.8    NA     NA    NA
##  4 FB     2013-01-07     29.4    NA     NA    NA
##  5 FB     2013-01-08     29.1    NA     NA    NA
##  6 FB     2013-01-09     30.6    NA     NA    NA
##  7 FB     2013-01-10     31.3    NA     NA    NA
##  8 FB     2013-01-11     31.7    NA     NA    NA
##  9 FB     2013-01-14     31.0    NA     NA    NA
## 10 FB     2013-01-15     30.1    NA     NA    NA
## # … with 4,022 more rows
…
# 분기별 최대값 
FANG_max_by_qtr <- FANG %>% 
  group_by(symbol) %>% 
  tq_transmute( select = adjusted, 
                mutate_fun = apply.quarterly,
                FUN = max, 
                col_rename = "max.close") %>% 
  mutate(year.qtr = paste0(year(date), "-Q", quarter(date))) %>%  
  #paste0은 나열된 원소 사이에 공백없이 출력
  select(-date)

FANG_max_by_qtr

## # A tibble: 64 x 3
## # Groups:   symbol [4]
##    symbol max.close year.qtr
##    <chr>      <dbl> <chr>   
##  1 FB          32.5 2013-Q1 
##  2 FB          29.0 2013-Q2 
##  3 FB          51.2 2013-Q3 
##  4 FB          58.0 2013-Q4 
##  5 FB          72.0 2014-Q1 
##  6 FB          67.6 2014-Q2 
##  7 FB          79.0 2014-Q3 
##  8 FB          81.4 2014-Q4 
##  9 FB          85.3 2015-Q1 
## 10 FB          88.9 2015-Q2 
## # … with 54 more rows

# 분기별 최소값 
FANG_min_by_qtr <- FANG %>% 
  group_by(symbol) %>% 
  tq_transmute( select = adjusted, 
                mutate_fun = apply.quarterly,
                FUN = min, 
                col_rename = "min.close") %>% 
  mutate(year.qtr = paste0(year(date), "-Q", quarter(date))) %>%  
  #paste0은 나열된 원소 사이에 공백없이 출력
  select(-date)

FANG_min_by_qtr

## # A tibble: 64 x 3
## # Groups:   symbol [4]
##    symbol min.close year.qtr
##    <chr>      <dbl> <chr>   
##  1 FB          25.1 2013-Q1 
##  2 FB          22.9 2013-Q2 
##  3 FB          24.4 2013-Q3 
##  4 FB          44.8 2013-Q4 
##  5 FB          53.5 2014-Q1 
##  6 FB          56.1 2014-Q2 
##  7 FB          62.8 2014-Q3 
##  8 FB          72.6 2014-Q4 
##  9 FB          74.1 2015-Q1 
## 10 FB          77.5 2015-Q2 
## # … with 54 more rows

분기별 최대값, 최소값 data frames 생성

FANG_by_qtr <- left_join(FANG_max_by_qtr, FANG_min_by_qtr,
                         by = c("symbol" = "symbol",
                                "year.qtr" = "year.qtr"))

FANG_by_qtr

## # A tibble: 64 x 4
## # Groups:   symbol [4]
##    symbol max.close year.qtr min.close
##    <chr>      <dbl> <chr>        <dbl>
##  1 FB          32.5 2013-Q1       25.1
##  2 FB          29.0 2013-Q2       22.9
##  3 FB          51.2 2013-Q3       24.4
##  4 FB          58.0 2013-Q4       44.8
##  5 FB          72.0 2014-Q1       53.5
##  6 FB          67.6 2014-Q2       56.1
##  7 FB          79.0 2014-Q3       62.8
##  8 FB          81.4 2014-Q4       72.6
##  9 FB          85.3 2015-Q1       74.1
## 10 FB          88.9 2015-Q2       77.5
## # … with 54 more rows
…
